<svg>
<defs>
<g id="cho_ma" transform="scale(0.8) translate(0.2 0.2)">
  <path transform="matrix(0.00887989,0,0,0.00880729,0.94473898,0.68231264)"
     d="M -1.7796628,-46.271187 -1.9253193,-3.2076761 -32.478815,27.13983 -75.542326,26.994173 -105.88983,-3.559322 l 0.14565,-43.063511 30.5535,-30.347506 43.063511,0.145656 z"
     style="fill:#000000;fill-opacity:1;fill-rule:nonzero;stroke:#000000;stroke-width:1.00062525;stroke-linecap:butt;stroke-linejoin:miter;stroke-miterlimit:4;stroke-dasharray:none;stroke-opacity:1" />
  <path d="m 0.41473598,0.77646564 c -0.02148,-0.01168 -0.06475,-0.01911 -0.116601,-0.02002 -0.0919,-0.0016 -0.118152,-0.02246 -0.03508,-0.02787 l 0.05325,-0.0035 -0.01665,-0.04019 c -0.02424,-0.0585 -0.01062,-0.115894 0.03401,-0.143335 0.04383,-0.02696 0.0682,-0.02751 0.110146,-0.0025 0.04745,0.02827 0.06274,0.07254 0.04022,0.116453 -0.0099,0.01919 -0.02314,0.03816 -0.02954,0.04215 -0.02232,0.01391 0.0017,0.02864 0.04683,0.02864 0.0906,0 0.136653,-0.10314 0.07418,-0.16614 -0.02742,-0.02765 -0.125741,-0.06348 -0.174207,-0.06348 -0.04152,0 -0.03089,-0.02303 0.01992,-0.04315 0.0446,-0.01767 0.04539,-0.01885 0.02113,-0.03194 -0.01797,-0.0097 -0.03585,-0.01029 -0.06242,-0.0021 -0.03035,0.0094 -0.04427,0.0074 -0.07521,-0.01077 -0.02088,-0.01226 -0.03954,-0.03314 -0.04145,-0.04638 -0.0034,-0.02375 -0.0012,-0.024 0.165084,-0.01801 0.09271,0.0033 0.177537,0.01075 0.188495,0.01645 0.03118,0.01624 0.02346,0.04369 -0.01707,0.06081 -0.05869,0.02478 -0.0581,0.03151 0.0055,0.06279 0.04427,0.02177 0.0654,0.04073 0.0808,0.07251 0.01959,0.04043 0.01974,0.04639 0.0025,0.09881 -0.02279,0.06921 -0.05612,0.101655 -0.126236,0.122935 -0.07012,0.02128 -0.105349,0.02075 -0.14756,-0.0022 z m -0.0037,-0.103606 c 0.02728,-0.0249 0.02636,-0.05275 -0.0026,-0.07919 -0.04265,-0.03893 -0.08629,0.01864 -0.05657,0.07464 0.01513,0.02851 0.03155,0.02978 0.05919,0.0046 z m 0.229575,-0.361881 c 0.0033,-0.01279 -0.005,-0.02306 -0.02503,-0.03064 -0.06061,-0.02302 -0.09267,-0.02436 -0.179951,-0.0075 -0.04904,0.0095 -0.12059,0.01721 -0.159007,0.01721 -0.06168,10e-7 -0.07199,-0.0033 -0.08823,-0.0283 -0.03965,-0.06101 -0.03408,-0.06301 0.155236,-0.05574 0.107976,0.0041 0.204866,0.0017 0.256252,-0.0064 0.123648,-0.0196 0.184923,0.01298 0.184923,0.09832 0,0.03216 -3.87e-4,0.03233 -0.07458,0.03233 -0.06417,0 -0.07389,-0.0027 -0.0696,-0.01924 z"
     style="fill:#ffffff;fill-opacity:1;stroke-width:0.01143287" />
</g>
</defs>
</svg>
