<svg>

<defs>
  <g id="cho_k" transform="matrix(0.00997087,0,0,0.00959019,-0.13259162,-0.0399361)">
    <path style="fill:#000000;fill-opacity:1;fill-rule:nonzero;stroke:#000000;stroke-width:1.00062525;stroke-linecap:butt;stroke-linejoin:miter;stroke-miterlimit:4;stroke-dasharray:none;stroke-opacity:1"
       d="M -1.7796628,-46.271187 -1.9253193,-3.2076761 -32.478815,27.13983 -75.542326,26.994173 -105.88983,-3.559322 l 0.14565,-43.063511 30.5535,-30.347506 43.063511,0.145656 z"
       transform="matrix(0.88559128,0,0,0.91123232,107.5167,74.758664)" />
    <path style="fill:#ffffff;fill-opacity:1"
       d="m 65.999999,86.756207 c 0,-0.50121 0.5325,-1.443791 1.18333,-2.094624 0.65084,-0.650834 0.92331,-1.443358 0.60551,-1.761166 -0.88364,-0.883636 -14.65559,-0.944547 -20.30979,-0.08983 -6.5406,0.988716 -10.74342,-0.485708 -10.29839,-3.612864 0.26926,-1.892053 1.2603,-2.41362 6.31934,-3.325769 11.10732,-2.002655 21.5,-6.32764 21.5,-8.947366 0,-2.129532 -3.31358,-1.834725 -12.5,1.112113 -7.75224,2.48678 -8.1,2.512828 -11.229,0.841072 -3.06401,-1.637032 -5.12526,-4.911931 -3.87718,-6.160016 0.31704,-0.317039 4.59744,-0.909512 9.512,-1.316607 4.91456,-0.407095 9.34923,-0.995831 9.85482,-1.308302 1.03871,-0.641961 18.77718,-2.99506 21.5313,-2.856238 2.17246,0.109503 5.62888,4.043143 5.67479,6.458302 0.0281,1.475923 -0.90644,1.750004 -5.96673,1.750004 -6.2173,0 -7.26622,0.876636 -4.43571,3.707143 2.26734,2.267339 0.53815,3.437509 -6.15763,4.166967 -7.06177,0.76933 -8.21906,2.619389 -1.65322,2.642853 2.61061,0.0093 7.28955,0.824711 10.39765,1.811959 10.33039,3.281321 11.52853,8.100625 2.04866,8.240347 -2.58486,0.0381 -6.38725,0.425678 -8.44975,0.86129 -2.16938,0.458188 -3.75,0.407916 -3.75,-0.119268 z M 45.176209,58.221122 c -0.64692,-0.646913 -1.17621,-1.986206 -1.17621,-2.976206 0,-2.480101 -1.5356,-2.255999 -5.55652,0.810905 -3.51465,2.680757 -6.02551,2.641865 -7.08138,-0.109687 -0.34488,-0.898729 1.10248,-4.123442 3.46279,-7.715073 2.23043,-3.394011 3.83073,-6.534352 3.55621,-6.978537 -0.27452,-0.444184 -1.6117,-0.807608 -2.9715,-0.807608 -1.37854,0 -2.75347,-0.732544 -3.10774,-1.655758 -0.8972,-2.338059 3.16944,-5.344242 7.22947,-5.344242 2.86229,0 3.39859,-0.404419 3.96677,-2.991352 0.41233,-1.877301 0.0984,-4.111012 -0.84278,-5.997762 -1.40751,-2.821421 -1.36783,-3.098845 0.64495,-4.508648 4.88508,-3.421645 9.69973,-0.529548 9.69973,5.826503 0,3.249343 0.28731,3.671259 2.5,3.671259 3.40331,0 3.32086,3.209155 -0.15266,5.941424 -3.98814,3.137071 -2.11085,3.60075 4.20304,1.038128 l 5.62226,-2.281906 -0.51938,-4.598823 c -0.28566,-2.529353 -0.662,-5.69677 -0.83632,-7.038705 -0.48157,-3.707278 3.74846,-5.859055 7.74026,-3.937398 2.73184,1.315112 2.91842,1.755765 2.60273,6.146974 -0.18703,2.601668 0.038,4.750324 0.5,4.77479 10.80633,0.572231 12.34007,1.065563 12.34007,3.96922 0,1.944789 -2.17055,2.645102 -10,3.226426 -3.37335,0.250467 -3.5,0.404607 -3.5,4.25987 v 4 l 7.5,0.558295 c 11.01531,0.819972 15.514,3.288775 14.82677,8.136663 -0.29973,2.1143 -0.82327,2.305042 -6.32677,2.305042 -5.53627,0 -5.97755,-0.163704 -5.70949,-2.118079 0.23838,-1.738011 -0.46855,-2.31075 -3.93965,-3.191808 -5.02907,-1.276514 -5.49919,-1.067749 -6.35338,2.821355 -0.36101,1.643692 -1.18313,3.052164 -1.82693,3.129937 -3.459,0.417857 -6.31131,-0.297092 -7.46252,-1.870526 -0.88418,-1.208466 -2.63151,-1.770879 -5.50185,-1.770879 -3.51876,0 -4.25545,-0.345179 -4.50766,-2.112095 -0.16581,-1.161652 0.83414,-3.4617 2.22212,-5.111217 2.90517,-3.452602 2.56899,-4.366756 -1.2339,-3.355269 -2.34734,0.62434 -2.7547,1.337646 -3.2247,5.646597 -0.80697,7.398217 -4.31641,12.67761 -6.78583,10.20819 z m -3.00495,-10.431194 c 2.20588,-1.996292 2.35261,-3.345012 0.36393,-3.345012 -1.27988,0 -3.53519,2.828886 -3.53519,4.434259 0,1.037769 1.3231,0.58332 3.17126,-1.089247 z m 23.82874,-2.452001 c 0,-1.510455 -0.44784,-1.935137 -1.58179,-1.5 -0.86998,0.333844 -1.76998,0.606989 -2,0.606989 -0.23001,0 -0.41821,0.675 -0.41821,1.5 0,0.833333 0.88889,1.5 2,1.5 1.36719,0 2,-0.666667 2,-2.106989 z" />
  </g>
</defs>

</svg>
