<svg>
<defs>
<g id="cho_jjol" transform="scale(0.7) translate(0.2 0.2)">
  <path
     transform="matrix(0.00897527,0,0,0.00890217,0.95488654,0.68966313)"
     d="M -1.7796628,-46.271187 -1.9253193,-3.2076761 -32.478815,27.13983 -75.542326,26.994173 -105.88983,-3.559322 l 0.14565,-43.063511 30.5535,-30.347506 43.063511,0.145656 z"
     style="fill:#000000;fill-opacity:1;fill-rule:nonzero;stroke:#000000;stroke-width:1.00062525;stroke-linecap:butt;stroke-linejoin:miter;stroke-miterlimit:4;stroke-dasharray:none;stroke-opacity:1" />
  <path
     d="m 0.46240754,0.85806113 c -0.0055,-0.0055 -0.01,-0.05312 -0.01,-0.105731 v -0.09566 l -0.123839,-2.4e-5 c -0.140486,-2.7e-5 -0.225824,-0.03105 -0.233456,-0.08487 -0.0044,-0.03144 -0.0013,-0.03188 0.171112,-0.02423 0.119765,0.0053 0.17258,0.0028 0.165994,-0.0079 -0.01184,-0.01927 0.02311,-0.034 0.08072,-0.034 0.02437,0 0.04906,0.0108 0.0569,0.02488 0.01143,0.02056 0.03105,0.02349 0.113048,0.01687 0.08076,-0.0065 0.104848,-0.0031 0.129512,0.01843 0.07485,0.06532 0.01502,0.101203 -0.141765,0.08504 l -0.09449,-0.0097 -0.0067,0.09289 c -0.0048,0.0679 -0.01422,0.09844 -0.03471,0.113517 -0.03056,0.02248 -0.0567,0.0263 -0.07233,0.01056 z m -0.284123,-0.33121 c -0.0049,-0.0049 0.02774,-0.04647 0.07255,-0.09229 0.04481,-0.04582 0.08148,-0.09637 0.08148,-0.112328 0,-0.04014 0.0421,-0.05256 0.08866,-0.02615 0.02687,0.01524 0.03913,0.03503 0.03956,0.06389 3.49e-4,0.023 0.0095,0.04732 0.02031,0.05405 0.0148,0.0092 0.01568,0.01975 0.0035,0.04259 -0.02273,0.04273 -0.06177,0.05391 -0.09203,0.02635 -0.02334,-0.02125 -0.0317,-0.01993 -0.09165,0.01456 -0.06499,0.03739 -0.104914,0.04695 -0.122425,0.02933 z m 0.469713,-0.03932 c -0.02823,-0.03049 -0.0351,-0.03161 -0.08427,-0.01372 -0.02945,0.01071 -0.05739,0.01559 -0.06211,0.01085 -0.0047,-0.0047 0.0099,-0.03671 0.03246,-0.07103 0.02286,-0.03477 0.03782,-0.0748 0.03376,-0.09041 -0.01038,-0.03994 0.04205,-0.05267 0.08912,-0.02163 0.02088,0.01377 0.03453,0.03406 0.03031,0.0451 -0.0042,0.01104 0.01215,0.03534 0.03635,0.054 0.04966,0.03829 0.05465,0.06186 0.02041,0.09631 -0.03228,0.03248 -0.05971,0.02978 -0.09604,-0.0095 z m -0.435774,-0.227065 c -0.01716,-0.01853 -0.02924,-0.04742 -0.02685,-0.06419 0.0039,-0.02728 0.01545,-0.0305 0.109418,-0.0305 h 0.105076 v -0.05287 c 0,-0.04699 0.0047,-0.05342 0.04309,-0.05782 0.07484,-0.0086 0.112073,0.0086 0.117279,0.05408 0.0045,0.03964 0.0081,0.04132 0.07881,0.03756 0.06294,-0.0033 0.08041,0.0022 0.116334,0.03681 0.02324,0.02241 0.04227,0.04561 0.04227,0.05155 0,0.0266 -0.09392,0.04245 -0.167897,0.02833 -0.112481,-0.02146 -0.260843,-0.01774 -0.32227,0.0081 -0.0666,0.028 -0.05822,0.02897 -0.09526,-0.01104 z"
     style="fill:#ffffff;fill-opacity:1;stroke-width:0.01505755" />
</g>
</defs>
</svg>
